{
    "data":[
        {
            "name":"Overall",
            "icon":"http://62.210.93.54:8888/images/Common/svgs/dashboard.svg",
            "url":"overall.json"
        },
        {
            "name":"Reviews",
            "icon":"http://62.210.93.54:8888/images/Common/svgs/review.svg",
            "url":"reviews.json"
        },
        {
            "name":"Social",
            "icon":"http://62.210.93.54:8888/images/Common/svgs/social.svg",
            "url":"social.json"
        },
        {
            "name":"Suggestions",
            "icon":"http://62.210.93.54:8888/images/Common/svgs/suggestion.svg",
            "url":"suggestions.json"
        },
        {
            "name":"Questions",
            "icon":"http://62.210.93.54:8888/images/Common/svgs/question.svg",
            "url":"questions.json"
        },
        {
            "name":"My Competitors",
            "icon":"http://62.210.93.54:8888/images/Common/svgs/trophy.svg",
            "url":"competitors.json"
        }
    ]
}